{
  "count": 396,
  "next": "https://dev.declarator.org/api/lobby_group/?page=2",
  "previous": null,
  "results": [
    {
      "id": 1923,
      "level": 0,
      "lft": 1,
      "name": "cфера влияния Олега Дерипаски (ПГ “Базовый элемент”, Русал, En+)",
      "office": null,
      "parent": null,
      "region": null,
      "rght": 2,
      "tree_id": 1
    },
    {
      "id": 1901,
      "level": 0,
      "lft": 1,
      "name": "братья Ротенберг",
      "office": null,
      "parent": null,
      "region": null,
      "rght": 2,
      "tree_id": 2
    },
    {
      "id": 1802,
      "level": 0,
      "lft": 1,
      "name": "ведомственное лобби",
      "office": null,
      "parent": null,
      "region": null,
      "rght": 8,
      "tree_id": 3
    },
    {
      "id": 1887,
      "level": 1,
      "lft": 2,
      "name": "Минобрнауки",
      "office": null,
      "parent": 1802,
      "region": null,
      "rght": 3,
      "tree_id": 3
    },
    {
      "id": 1803,
      "level": 1,
      "lft": 4,
      "name": "Роскомнадзор",
      "office": null,
      "parent": 1802,
      "region": null,
      "rght": 5,
      "tree_id": 3
    },
    {
      "id": 1999,
      "level": 1,
      "lft": 6,
      "name": "ФССП России",
      "office": null,
      "parent": 1802,
      "region": null,
      "rght": 7,
      "tree_id": 3
    },
    {
      "id": 1774,
      "level": 0,
      "lft": 1,
      "name": "ГК “Фонд содействия реформированию ЖКХ”",
      "office": null,
      "parent": null,
      "region": null,
      "rght": 2,
      "tree_id": 4
    },
    {
      "id": 1883,
      "level": 0,
      "lft": 1,
      "name": "группа влияния Виктора Вексельберга",
      "office": null,
      "parent": null,
      "region": null,
      "rght": 2,
      "tree_id": 5
    },
    {
      "id": 2015,
      "level": 0,
      "lft": 1,
      "name": "группа компаний “КСМ”",
      "office": null,
      "parent": null,
      "region": null,
      "rght": 4,
      "tree_id": 6
    },
    {
      "id": 2016,
      "level": 1,
      "lft": 2,
      "name": " “КСМ”",
      "office": null,
      "parent": 2015,
      "region": null,
      "rght": 3,
      "tree_id": 6
    },
    {
      "id": 1805,
      "level": 0,
      "lft": 1,
      "name": "ДОССАФ",
      "office": null,
      "parent": null,
      "region": null,
      "rght": 2,
      "tree_id": 7
    },
    {
      "id": 1828,
      "level": 0,
      "lft": 1,
      "name": "ЗАО “Национальная медиа группа”",
      "office": null,
      "parent": null,
      "region": null,
      "rght": 2,
      "tree_id": 8
    },
    {
      "id": 1907,
      "level": 0,
      "lft": 1,
      "name": "защита бизнеса",
      "office": null,
      "parent": null,
      "region": null,
      "rght": 2,
      "tree_id": 9
    },
    {
      "id": 1873,
      "level": 0,
      "lft": 1,
      "name": "иностранное лобби",
      "office": null,
      "parent": null,
      "region": null,
      "rght": 8,
      "tree_id": 10
    },
    {
      "id": 1874,
      "level": 1,
      "lft": 2,
      "name": "Белоруссия",
      "office": null,
      "parent": 1873,
      "region": null,
      "rght": 3,
      "tree_id": 10
    },
    {
      "id": 2059,
      "level": 1,
      "lft": 4,
      "name": "немецкий концерн Bayer",
      "office": null,
      "parent": 1873,
      "region": null,
      "rght": 5,
      "tree_id": 10
    },
    {
      "id": 1955,
      "level": 1,
      "lft": 6,
      "name": "Республика Узбекистан ??",
      "office": null,
      "parent": 1873,
      "region": null,
      "rght": 7,
      "tree_id": 10
    },
    {
      "id": 1823,
      "level": 0,
      "lft": 1,
      "name": "личные бизнес-лобби",
      "office": null,
      "parent": null,
      "region": null,
      "rght": 2,
      "tree_id": 11
    },
    {
      "id": 1860,
      "level": 0,
      "lft": 1,
      "name": "Московская конфедерация промышленников и предпринимателей",
      "office": null,
      "parent": null,
      "region": null,
      "rght": 2,
      "tree_id": 12
    },
    {
      "id": 1694,
      "level": 0,
      "lft": 1,
      "name": "Не выявлено",
      "office": null,
      "parent": null,
      "region": null,
      "rght": 2,
      "tree_id": 13
    },
    {
      "id": 1785,
      "level": 0,
      "lft": 1,
      "name": "не выявлены",
      "office": null,
      "parent": null,
      "region": null,
      "rght": 2,
      "tree_id": 14
    },
    {
      "id": 1746,
      "level": 0,
      "lft": 1,
      "name": "НК “Лукойл”",
      "office": null,
      "parent": null,
      "region": null,
      "rght": 2,
      "tree_id": 15
    },
    {
      "id": 1894,
      "level": 0,
      "lft": 1,
      "name": "НОПРИЗ",
      "office": null,
      "parent": null,
      "region": null,
      "rght": 2,
      "tree_id": 16
    },
    {
      "id": 1716,
      "level": 0,
      "lft": 1,
      "name": "общественно-политическое лобби",
      "office": null,
      "parent": null,
      "region": null,
      "rght": 32,
      "tree_id": 17
    },
    {
      "id": 1719,
      "level": 1,
      "lft": 2,
      "name": "гражданские инициативы",
      "office": null,
      "parent": 1716,
      "region": null,
      "rght": 17,
      "tree_id": 17
    },
    {
      "id": 1756,
      "level": 2,
      "lft": 3,
      "name": "автомобилисты",
      "office": null,
      "parent": 1719,
      "region": null,
      "rght": 4,
      "tree_id": 17
    },
    {
      "id": 1729,
      "level": 2,
      "lft": 5,
      "name": "Автомобилисты, ФАР",
      "office": null,
      "parent": 1719,
      "region": null,
      "rght": 6,
      "tree_id": 17
    },
    {
      "id": 1809,
      "level": 2,
      "lft": 7,
      "name": "НКО",
      "office": null,
      "parent": 1719,
      "region": null,
      "rght": 8,
      "tree_id": 17
    },
    {
      "id": 1720,
      "level": 2,
      "lft": 9,
      "name": "НКО (благотворительные организации)",
      "office": null,
      "parent": 1719,
      "region": null,
      "rght": 10,
      "tree_id": 17
    },
    {
      "id": 1871,
      "level": 2,
      "lft": 11,
      "name": "НКО (зоозащитники)",
      "office": null,
      "parent": 1719,
      "region": null,
      "rght": 12,
      "tree_id": 17
    },
    {
      "id": 1757,
      "level": 2,
      "lft": 13,
      "name": "НКО (инвалиды)",
      "office": null,
      "parent": 1719,
      "region": null,
      "rght": 14,
      "tree_id": 17
    },
    {
      "id": 1952,
      "level": 2,
      "lft": 15,
      "name": "ОНФ",
      "office": null,
      "parent": 1719,
      "region": null,
      "rght": 16,
      "tree_id": 17
    },
    {
      "id": 1739,
      "level": 1,
      "lft": 18,
      "name": "конфессиональное лобби",
      "office": null,
      "parent": 1716,
      "region": null,
      "rght": 23,
      "tree_id": 17
    },
    {
      "id": 2071,
      "level": 2,
      "lft": 19,
      "name": "Ислам",
      "office": null,
      "parent": 1739,
      "region": null,
      "rght": 20,
      "tree_id": 17
    },
    {
      "id": 1740,
      "level": 2,
      "lft": 21,
      "name": "РПЦ",
      "office": null,
      "parent": 1739,
      "region": null,
      "rght": 22,
      "tree_id": 17
    },
    {
      "id": 1717,
      "level": 1,
      "lft": 24,
      "name": "профсоюзное лобби",
      "office": null,
      "parent": 1716,
      "region": null,
      "rght": 27,
      "tree_id": 17
    },
    {
      "id": 1910,
      "level": 2,
      "lft": 25,
      "name": "МОООП",
      "office": null,
      "parent": 1717,
      "region": null,
      "rght": 26,
      "tree_id": 17
    },
    {
      "id": 1811,
      "level": 1,
      "lft": 28,
      "name": "экологическое лобби",
      "office": null,
      "parent": 1716,
      "region": null,
      "rght": 29,
      "tree_id": 17
    },
    {
      "id": 2054,
      "level": 1,
      "lft": 30,
      "name": "экологическое лобби, ОНФ",
      "office": null,
      "parent": 1716,
      "region": null,
      "rght": 31,
      "tree_id": 17
    },
    {
      "id": 1904,
      "level": 0,
      "lft": 1,
      "name": "общественное-политическое лобби",
      "office": null,
      "parent": null,
      "region": null,
      "rght": 6,
      "tree_id": 18
    },
    {
      "id": 1905,
      "level": 1,
      "lft": 2,
      "name": "конфессиональное лобби",
      "office": null,
      "parent": 1904,
      "region": null,
      "rght": 5,
      "tree_id": 18
    },
    {
      "id": 1906,
      "level": 2,
      "lft": 3,
      "name": "РПЦ",
      "office": null,
      "parent": 1905,
      "region": null,
      "rght": 4,
      "tree_id": 18
    },
    {
      "id": 1697,
      "level": 0,
      "lft": 1,
      "name": "отраслевое лобби",
      "office": null,
      "parent": null,
      "region": null,
      "rght": 346,
      "tree_id": 19
    },
    {
      "id": 2058,
      "level": 1,
      "lft": 2,
      "name": " культура, искусство, индустрия развлечения",
      "office": null,
      "parent": 1697,
      "region": null,
      "rght": 3,
      "tree_id": 19
    },
    {
      "id": 2028,
      "level": 1,
      "lft": 4,
      "name": "алкогольное лобби",
      "office": null,
      "parent": 1697,
      "region": null,
      "rght": 7,
      "tree_id": 19
    },
    {
      "id": 2029,
      "level": 2,
      "lft": 5,
      "name": "виноделие",
      "office": null,
      "parent": 2028,
      "region": null,
      "rght": 6,
      "tree_id": 19
    },
    {
      "id": 1765,
      "level": 1,
      "lft": 8,
      "name": "алкогольное лобби (виноделие)",
      "office": null,
      "parent": 1697,
      "region": null,
      "rght": 9,
      "tree_id": 19
    },
    {
      "id": 1829,
      "level": 1,
      "lft": 10,
      "name": "атомная промышленность",
      "office": null,
      "parent": 1697,
      "region": null,
      "rght": 13,
      "tree_id": 19
    },
    {
      "id": 1947,
      "level": 2,
      "lft": 11,
      "name": "ГК Росатом",
      "office": null,
      "parent": 1829,
      "region": null,
      "rght": 12,
      "tree_id": 19
    },
    {
      "id": 1703,
      "level": 1,
      "lft": 14,
      "name": "геология и разведка недр",
      "office": null,
      "parent": 1697,
      "region": null,
      "rght": 17,
      "tree_id": 19
    },
    {
      "id": 1964,
      "level": 2,
      "lft": 15,
      "name": "Евраз Групп",
      "office": null,
      "parent": 1703,
      "region": null,
      "rght": 16,
      "tree_id": 19
    },
    {
      "id": 1884,
      "level": 1,
      "lft": 18,
      "name": "геология и разведка недр (золотодобывающая промышленность)",
      "office": null,
      "parent": 1697,
      "region": null,
      "rght": 19,
      "tree_id": 19
    },
    {
      "id": 1758,
      "level": 1,
      "lft": 20,
      "name": "государственное управление",
      "office": null,
      "parent": 1697,
      "region": null,
      "rght": 35,
      "tree_id": 19
    },
    {
      "id": 2065,
      "level": 2,
      "lft": 21,
      "name": "адвокаты",
      "office": null,
      "parent": 1758,
      "region": null,
      "rght": 22,
      "tree_id": 19
    },
    {
      "id": 1759,
      "level": 2,
      "lft": 23,
      "name": "госзакупки",
      "office": null,
      "parent": 1758,
      "region": null,
      "rght": 24,
      "tree_id": 19
    },
    {
      "id": 1788,
      "level": 2,
      "lft": 25,
      "name": "муниципальное управление",
      "office": null,
      "parent": 1758,
      "region": null,
      "rght": 26,
      "tree_id": 19
    },
    {
      "id": 1867,
      "level": 2,
      "lft": 27,
      "name": "нотариусы",
      "office": null,
      "parent": 1758,
      "region": null,
      "rght": 28,
      "tree_id": 19
    },
    {
      "id": 1972,
      "level": 2,
      "lft": 29,
      "name": "оценщики",
      "office": null,
      "parent": 1758,
      "region": null,
      "rght": 30,
      "tree_id": 19
    },
    {
      "id": 1878,
      "level": 2,
      "lft": 31,
      "name": "суды",
      "office": null,
      "parent": 1758,
      "region": null,
      "rght": 32,
      "tree_id": 19
    },
    {
      "id": 1847,
      "level": 2,
      "lft": 33,
      "name": "ФССП, следственные органы, суды, нотариат",
      "office": null,
      "parent": 1758,
      "region": null,
      "rght": 34,
      "tree_id": 19
    },
    {
      "id": 1814,
      "level": 1,
      "lft": 36,
      "name": "деревообрабатывающая и целлюлозно-бумажная промышленность",
      "office": null,
      "parent": 1697,
      "region": null,
      "rght": 41,
      "tree_id": 19
    },
    {
      "id": 1984,
      "level": 2,
      "lft": 37,
      "name": "АО “СОЛИКАМСКБУМПРОМ”",
      "office": null,
      "parent": 1814,
      "region": null,
      "rght": 38,
      "tree_id": 19
    },
    {
      "id": 1815,
      "level": 2,
      "lft": 39,
      "name": "Пермский домостроительный комбинат",
      "office": null,
      "parent": 1814,
      "region": null,
      "rght": 40,
      "tree_id": 19
    },
    {
      "id": 1795,
      "level": 1,
      "lft": 42,
      "name": "жилищно-коммунальное хозяйство",
      "office": null,
      "parent": 1697,
      "region": null,
      "rght": 43,
      "tree_id": 19
    },
    {
      "id": 1773,
      "level": 1,
      "lft": 44,
      "name": "ЖКХ",
      "office": null,
      "parent": 1697,
      "region": null,
      "rght": 45,
      "tree_id": 19
    },
    {
      "id": 1881,
      "level": 1,
      "lft": 46,
      "name": "здравоохранение, спорт туризм",
      "office": null,
      "parent": 1697,
      "region": null,
      "rght": 49,
      "tree_id": 19
    },
    {
      "id": 1882,
      "level": 2,
      "lft": 47,
      "name": "туризм",
      "office": null,
      "parent": 1881,
      "region": null,
      "rght": 48,
      "tree_id": 19
    },
    {
      "id": 1749,
      "level": 1,
      "lft": 50,
      "name": "здравоохранение, спорт, туризм",
      "office": null,
      "parent": 1697,
      "region": null,
      "rght": 59,
      "tree_id": 19
    },
    {
      "id": 1908,
      "level": 2,
      "lft": 51,
      "name": "здравоохранение и туризм",
      "office": null,
      "parent": 1749,
      "region": null,
      "rght": 52,
      "tree_id": 19
    },
    {
      "id": 1750,
      "level": 2,
      "lft": 53,
      "name": "спорт",
      "office": null,
      "parent": 1749,
      "region": null,
      "rght": 56,
      "tree_id": 19
    },
    {
      "id": 1846,
      "level": 3,
      "lft": 54,
      "name": "ХК Металлург",
      "office": null,
      "parent": 1750,
      "region": null,
      "rght": 55,
      "tree_id": 19
    },
    {
      "id": 1852,
      "level": 2,
      "lft": 57,
      "name": "туризм",
      "office": null,
      "parent": 1749,
      "region": null,
      "rght": 58,
      "tree_id": 19
    },
    {
      "id": 2057,
      "level": 1,
      "lft": 60,
      "name": "инвестиционная деятельность",
      "office": null,
      "parent": 1697,
      "region": null,
      "rght": 61,
      "tree_id": 19
    },
    {
      "id": 1824,
      "level": 1,
      "lft": 62,
      "name": "искусство, культура, индустрия развлечений",
      "office": null,
      "parent": 1697,
      "region": null,
      "rght": 63,
      "tree_id": 19
    },
    {
      "id": 1925,
      "level": 1,
      "lft": 64,
      "name": "космическая отрасль",
      "office": null,
      "parent": 1697,
      "region": null,
      "rght": 67,
      "tree_id": 19
    },
    {
      "id": 1926,
      "level": 2,
      "lft": 65,
      "name": "ОАО “ОРКК”",
      "office": null,
      "parent": 1925,
      "region": null,
      "rght": 66,
      "tree_id": 19
    },
    {
      "id": 1708,
      "level": 1,
      "lft": 68,
      "name": "культура, искусство, индустрия развлечений",
      "office": null,
      "parent": 1697,
      "region": null,
      "rght": 73,
      "tree_id": 19
    },
    {
      "id": 1959,
      "level": 2,
      "lft": 69,
      "name": "букмекеры",
      "office": null,
      "parent": 1708,
      "region": null,
      "rght": 70,
      "tree_id": 19
    },
    {
      "id": 1801,
      "level": 2,
      "lft": 71,
      "name": "ООО “Арт-Реставрация”",
      "office": null,
      "parent": 1708,
      "region": null,
      "rght": 72,
      "tree_id": 19
    },
    {
      "id": 1859,
      "level": 1,
      "lft": 74,
      "name": "культура, искусство, индустрия развлечений (игорное лобби)",
      "office": null,
      "parent": 1697,
      "region": null,
      "rght": 75,
      "tree_id": 19
    },
    {
      "id": 1949,
      "level": 1,
      "lft": 76,
      "name": "культура, искусство, индустрия развлечения",
      "office": null,
      "parent": 1697,
      "region": null,
      "rght": 79,
      "tree_id": 19
    },
    {
      "id": 2047,
      "level": 2,
      "lft": 77,
      "name": "Фонд кино",
      "office": null,
      "parent": 1949,
      "region": null,
      "rght": 78,
      "tree_id": 19
    },
    {
      "id": 2030,
      "level": 1,
      "lft": 80,
      "name": "легкая промышленность",
      "office": null,
      "parent": 1697,
      "region": null,
      "rght": 81,
      "tree_id": 19
    },
    {
      "id": 1939,
      "level": 1,
      "lft": 82,
      "name": "лесное и рыбное хозяйство",
      "office": null,
      "parent": 1697,
      "region": null,
      "rght": 83,
      "tree_id": 19
    },
    {
      "id": 1794,
      "level": 1,
      "lft": 84,
      "name": "лесное, рыбное хозяйство",
      "office": null,
      "parent": 1697,
      "region": null,
      "rght": 89,
      "tree_id": 19
    },
    {
      "id": 2039,
      "level": 2,
      "lft": 85,
      "name": "ПАО “Мурманский Траловый Флот”",
      "office": null,
      "parent": 1794,
      "region": null,
      "rght": 86,
      "tree_id": 19
    },
    {
      "id": 1817,
      "level": 2,
      "lft": 87,
      "name": "Русская рыбопромышленная компания",
      "office": null,
      "parent": 1794,
      "region": null,
      "rght": 88,
      "tree_id": 19
    },
    {
      "id": 1917,
      "level": 1,
      "lft": 90,
      "name": "лесное, рыбное хозяйство (охотоведы)",
      "office": null,
      "parent": 1697,
      "region": null,
      "rght": 91,
      "tree_id": 19
    },
    {
      "id": 1913,
      "level": 1,
      "lft": 92,
      "name": "машиностроение",
      "office": null,
      "parent": 1697,
      "region": null,
      "rght": 93,
      "tree_id": 19
    },
    {
      "id": 1709,
      "level": 1,
      "lft": 94,
      "name": "машиностроение, автомобилестроение",
      "office": null,
      "parent": 1697,
      "region": null,
      "rght": 105,
      "tree_id": 19
    },
    {
      "id": 2075,
      "level": 2,
      "lft": 95,
      "name": "авиастроительные предприятия Ростовской области)",
      "office": null,
      "parent": 1709,
      "region": null,
      "rght": 96,
      "tree_id": 19
    },
    {
      "id": 2073,
      "level": 2,
      "lft": 97,
      "name": "Мехмаш",
      "office": null,
      "parent": 1709,
      "region": null,
      "rght": 98,
      "tree_id": 19
    },
    {
      "id": 1743,
      "level": 2,
      "lft": 99,
      "name": "ОАО “Кировский завод”",
      "office": null,
      "parent": 1709,
      "region": null,
      "rght": 100,
      "tree_id": 19
    },
    {
      "id": 1783,
      "level": 2,
      "lft": 101,
      "name": "ПАО “Автоваз”",
      "office": null,
      "parent": 1709,
      "region": null,
      "rght": 102,
      "tree_id": 19
    },
    {
      "id": 1710,
      "level": 2,
      "lft": 103,
      "name": "ПАО “Объединенная авиастроительная корпорация”",
      "office": null,
      "parent": 1709,
      "region": null,
      "rght": 104,
      "tree_id": 19
    },
    {
      "id": 1713,
      "level": 1,
      "lft": 106,
      "name": "медицина и фармацевтика",
      "office": null,
      "parent": 1697,
      "region": null,
      "rght": 109,
      "tree_id": 19
    },
    {
      "id": 2001,
      "level": 2,
      "lft": 107,
      "name": "ООО “Завод Медсинтез”",
      "office": null,
      "parent": 1713,
      "region": null,
      "rght": 108,
      "tree_id": 19
    },
    {
      "id": 1768,
      "level": 1,
      "lft": 110,
      "name": "медицина и фармацевтика (иностранные компании)",
      "office": null,
      "parent": 1697,
      "region": null,
      "rght": 111,
      "tree_id": 19
    },
    {
      "id": 2079,
      "level": 1,
      "lft": 112,
      "name": "образование, наука и научное образование",
      "office": null,
      "parent": 1697,
      "region": null,
      "rght": 113,
      "tree_id": 19
    },
    {
      "id": 1970,
      "level": 1,
      "lft": 114,
      "name": "образование, наука и научное обслуживание",
      "office": null,
      "parent": 1697,
      "region": null,
      "rght": 115,
      "tree_id": 19
    }
  ]
}